{
  "Students": [
    {
      "id": "K173722",
      "name": "Murad Popattia",
      "age": 22,
      "Courses": [
        "IPT",
        "DLP",
        "SMD",
        "SM"
      ]
    },
    {
      "id": "K173732",
      "name": "Hassan Azhar",
      "age": 21,
      "Courses": [
        "DS",
        "DLP",
        "SMD",
        "SM"
      ]
    },
    {
      "id": "K173745",
      "name": "Muhammad Samiullah",
      "age": 22,
      "Courses": [
        "DDR",
        "DLP",
        "ICC",
        "SM"
      ]
    },
    {
      "id": "K173713",
      "name": "Ali Ammar",
      "age": 20,
      "Courses": [
        "DS",
        "ISPM",
        "ICC",
        "SM"
      ]
    }
  ]
}